{
  "response": {
    "status": "ok",
    "userTier": "developer",
    "total": 2213128,
    "startIndex": 1,
    "pageSize": 10,
    "currentPage": 1,
    "pages": 221313,
    "orderBy": "newest",
    "results": [
      {
        "id": "sport/live/2020/aug/23/england-v-pakistan-third-test-day-three-live",
        "type": "liveblog",
        "sectionId": "sport",
        "sectionName": "Sport",
        "webPublicationDate": "2020-08-23T17:46:01Z",
        "webTitle": "England v Pakistan: third Test, day three – live!",
        "webUrl": "https://www.theguardian.com/sport/live/2020/aug/23/england-v-pakistan-third-test-day-three-live",
        "apiUrl": "https://content.guardianapis.com/sport/live/2020/aug/23/england-v-pakistan-third-test-day-three-live",
        "isHosted": false,
        "pillarId": "pillar/sport",
        "pillarName": "Sport"
      },
      {
        "id": "world/live/2020/aug/23/coronavirus-live-news-india-nears-3m-cases-as-australian-state-of-queensland-to-announce-two-new-cases",
        "type": "liveblog",
        "sectionId": "world",
        "sectionName": "World news",
        "webPublicationDate": "2020-08-23T17:45:05Z",
        "webTitle": "Coronavirus live news: calls for party ban in Germany to curb cases; ex-Ukraine PM 'seriously ill with Covid'",
        "webUrl": "https://www.theguardian.com/world/live/2020/aug/23/coronavirus-live-news-india-nears-3m-cases-as-australian-state-of-queensland-to-announce-two-new-cases",
        "apiUrl": "https://content.guardianapis.com/world/live/2020/aug/23/coronavirus-live-news-india-nears-3m-cases-as-australian-state-of-queensland-to-announce-two-new-cases",
        "isHosted": false,
        "pillarId": "pillar/news",
        "pillarName": "News"
      },
      {
        "id": "football/live/2020/aug/23/champions-league-final-paris-saint-germain-bayern-munich-psg-live",
        "type": "liveblog",
        "sectionId": "football",
        "sectionName": "Football",
        "webPublicationDate": "2020-08-23T17:43:52Z",
        "webTitle": "Paris Saint-Germain v Bayern Munich: Champions League final – live!",
        "webUrl": "https://www.theguardian.com/football/live/2020/aug/23/champions-league-final-paris-saint-germain-bayern-munich-psg-live",
        "apiUrl": "https://content.guardianapis.com/football/live/2020/aug/23/champions-league-final-paris-saint-germain-bayern-munich-psg-live",
        "isHosted": false,
        "pillarId": "pillar/sport",
        "pillarName": "Sport"
      },
      {
        "id": "us-news/2020/aug/23/james-comey-donald-trump-steve-bannon",
        "type": "article",
        "sectionId": "us-news",
        "sectionName": "US news",
        "webPublicationDate": "2020-08-23T17:40:59Z",
        "webTitle": "James Comey: ex-Trump adviser Steve Bannon 'in a world of trouble'",
        "webUrl": "https://www.theguardian.com/us-news/2020/aug/23/james-comey-donald-trump-steve-bannon",
        "apiUrl": "https://content.guardianapis.com/us-news/2020/aug/23/james-comey-donald-trump-steve-bannon",
        "isHosted": false,
        "pillarId": "pillar/news",
        "pillarName": "News"
      },
      {
        "id": "sport/2020/aug/23/sophia-popov-holds-her-nerve-and-lands-first-major-with-the-womens-open",
        "type": "article",
        "sectionId": "sport",
        "sectionName": "Sport",
        "webPublicationDate": "2020-08-23T17:38:57Z",
        "webTitle": "World No 304 Sophia Popov holds nerve to claim shock Women's Open title",
        "webUrl": "https://www.theguardian.com/sport/2020/aug/23/sophia-popov-holds-her-nerve-and-lands-first-major-with-the-womens-open",
        "apiUrl": "https://content.guardianapis.com/sport/2020/aug/23/sophia-popov-holds-her-nerve-and-lands-first-major-with-the-womens-open",
        "isHosted": false,
        "pillarId": "pillar/sport",
        "pillarName": "Sport"
      },
      {
        "id": "sport/live/2020/aug/23/county-cricket-yorkshire-v-lancashire-surrey-v-kent-and-more-live",
        "type": "liveblog",
        "sectionId": "sport",
        "sectionName": "Sport",
        "webPublicationDate": "2020-08-23T17:38:50Z",
        "webTitle": "County cricket: Yorkshire v Lancashire, Surrey v Kent and more – live!",
        "webUrl": "https://www.theguardian.com/sport/live/2020/aug/23/county-cricket-yorkshire-v-lancashire-surrey-v-kent-and-more-live",
        "apiUrl": "https://content.guardianapis.com/sport/live/2020/aug/23/county-cricket-yorkshire-v-lancashire-surrey-v-kent-and-more-live",
        "isHosted": false,
        "pillarId": "pillar/sport",
        "pillarName": "Sport"
      },
      {
        "id": "world/2020/aug/23/belarus-defiant-protesters-flood-minsk-demanding-lukashenkos-removal",
        "type": "article",
        "sectionId": "world",
        "sectionName": "World news",
        "webPublicationDate": "2020-08-23T17:38:08Z",
        "webTitle": "Belarus: defiant protesters flood Minsk demanding Lukashenko's removal",
        "webUrl": "https://www.theguardian.com/world/2020/aug/23/belarus-defiant-protesters-flood-minsk-demanding-lukashenkos-removal",
        "apiUrl": "https://content.guardianapis.com/world/2020/aug/23/belarus-defiant-protesters-flood-minsk-demanding-lukashenkos-removal",
        "isHosted": false,
        "pillarId": "pillar/news",
        "pillarName": "News"
      },
      {
        "id": "us-news/live/2020/aug/23/donald-trump-sister-niece-tapes-biden-harris-coronavirus-us-politics-latest-news-updates-live",
        "type": "liveblog",
        "sectionId": "us-news",
        "sectionName": "US news",
        "webPublicationDate": "2020-08-23T17:30:25Z",
        "webTitle": "Republican convention: Trump fields speakers of color as well as family members – US politics live",
        "webUrl": "https://www.theguardian.com/us-news/live/2020/aug/23/donald-trump-sister-niece-tapes-biden-harris-coronavirus-us-politics-latest-news-updates-live",
        "apiUrl": "https://content.guardianapis.com/us-news/live/2020/aug/23/donald-trump-sister-niece-tapes-biden-harris-coronavirus-us-politics-latest-news-updates-live",
        "isHosted": false,
        "pillarId": "pillar/news",
        "pillarName": "News"
      },
      {
        "id": "uk-news/2020/aug/23/police-crack-down-on-illegal-raves-ahead-of-introduction-of-10k-fine",
        "type": "article",
        "sectionId": "uk-news",
        "sectionName": "UK news",
        "webPublicationDate": "2020-08-23T17:30:08Z",
        "webTitle": "Police crack down on illegal raves ahead of introduction of £10k fine",
        "webUrl": "https://www.theguardian.com/uk-news/2020/aug/23/police-crack-down-on-illegal-raves-ahead-of-introduction-of-10k-fine",
        "apiUrl": "https://content.guardianapis.com/uk-news/2020/aug/23/police-crack-down-on-illegal-raves-ahead-of-introduction-of-10k-fine",
        "isHosted": false,
        "pillarId": "pillar/news",
        "pillarName": "News"
      },
      {
        "id": "business/2020/aug/24/bumpy-road-to-recovery-as-treasury-tips-unemployment-rate-to-top-13-by-end-of-the-year",
        "type": "article",
        "sectionId": "business",
        "sectionName": "Business",
        "webPublicationDate": "2020-08-23T17:30:03Z",
        "webTitle": "'Bumpy' road to recovery as Treasury tips unemployment rate to top 13% by end of the year",
        "webUrl": "https://www.theguardian.com/business/2020/aug/24/bumpy-road-to-recovery-as-treasury-tips-unemployment-rate-to-top-13-by-end-of-the-year",
        "apiUrl": "https://content.guardianapis.com/business/2020/aug/24/bumpy-road-to-recovery-as-treasury-tips-unemployment-rate-to-top-13-by-end-of-the-year",
        "isHosted": false,
        "pillarId": "pillar/news",
        "pillarName": "News"
      }
    ]
  }
}